<svg width="159" height="130" viewBox="0 0 159 130" fill="none" xmlns="http://www.w3.org/2000/svg">
<path d="M118.865 43.3507H112.873V64.298H118.865V43.3507Z" fill="#4183C4"/>
<path d="M116.29 44.8789H115.445C115.12 44.8789 114.856 45.1428 114.856 45.4682V53.9933C114.856 54.3188 115.12 54.5827 115.445 54.5827H116.29C116.615 54.5827 116.879 54.3188 116.879 53.9933V45.4682C116.879 45.1428 116.615 44.8789 116.29 44.8789Z" fill="#FCFCFC"/>
<g opacity="0.24">
<path opacity="0.24" d="M115.868 62.296C116.485 62.296 116.986 61.7955 116.986 61.178C116.986 60.5605 116.485 60.06 115.868 60.06C115.25 60.06 114.749 60.5605 114.749 61.178C114.749 61.7955 115.25 62.296 115.868 62.296Z" fill="#0C0C0C"/>
<path opacity="0.24" d="M115.868 62.4433C115.617 62.4439 115.372 62.3702 115.163 62.2315C114.955 62.0928 114.792 61.8954 114.696 61.6642C114.599 61.4331 114.574 61.1786 114.622 60.9329C114.671 60.6873 114.791 60.4615 114.968 60.2843C115.145 60.107 115.371 59.9862 115.617 59.9372C115.862 59.8881 116.117 59.913 116.349 60.0087C116.58 60.1044 116.778 60.2666 116.917 60.4747C117.057 60.6829 117.131 60.9276 117.131 61.178C117.13 61.5129 116.997 61.8338 116.76 62.0709C116.524 62.3079 116.203 62.4418 115.868 62.4433ZM115.868 60.2044C115.674 60.2039 115.485 60.2607 115.324 60.3678C115.162 60.4749 115.037 60.6273 114.962 60.8059C114.888 60.9844 114.869 61.181 114.906 61.3707C114.944 61.5603 115.037 61.7346 115.174 61.8713C115.311 62.0081 115.485 62.1011 115.675 62.1387C115.865 62.1763 116.061 62.1567 116.24 62.0824C116.419 62.0082 116.571 61.8826 116.678 61.7216C116.785 61.5605 116.842 61.3714 116.842 61.178C116.841 60.92 116.738 60.6728 116.556 60.4904C116.373 60.308 116.126 60.2052 115.868 60.2044Z" fill="white"/>
</g>
<path d="M124.815 43.3507H118.822V64.298H124.815V43.3507Z" fill="#BD79C6"/>
<path d="M122.23 44.8789H121.409C121.077 44.8789 120.808 45.1479 120.808 45.4798V53.9818C120.808 54.3137 121.077 54.5827 121.409 54.5827H122.23C122.563 54.5827 122.832 54.3137 122.832 53.9818V45.4798C122.832 45.1479 122.563 44.8789 122.23 44.8789Z" fill="#FCFCFC"/>
<g opacity="0.24">
<path opacity="0.24" d="M121.82 62.296C122.438 62.296 122.939 61.7955 122.939 61.178C122.939 60.5605 122.438 60.06 121.82 60.06C121.202 60.06 120.701 60.5605 120.701 61.178C120.701 61.7955 121.202 62.296 121.82 62.296Z" fill="#0C0C0C"/>
<path opacity="0.24" d="M121.82 62.4433C121.569 62.4439 121.324 62.3702 121.116 62.2315C120.907 62.0928 120.744 61.8954 120.648 61.6642C120.552 61.4331 120.526 61.1786 120.575 60.9329C120.623 60.6873 120.744 60.4615 120.921 60.2843C121.098 60.107 121.323 59.9862 121.569 59.9372C121.815 59.8881 122.069 59.913 122.301 60.0087C122.533 60.1044 122.73 60.2666 122.87 60.4747C123.009 60.6829 123.083 60.9276 123.083 61.178C123.083 61.5129 122.949 61.8338 122.713 62.0709C122.476 62.3079 122.155 62.4418 121.82 62.4433ZM121.82 60.2044C121.627 60.2039 121.437 60.2607 121.276 60.3678C121.115 60.4749 120.989 60.6273 120.915 60.8059C120.841 60.9844 120.821 61.181 120.859 61.3707C120.896 61.5603 120.989 61.7346 121.126 61.8713C121.263 62.0081 121.437 62.1011 121.627 62.1387C121.817 62.1763 122.014 62.1567 122.192 62.0824C122.371 62.0082 122.524 61.8826 122.631 61.7216C122.738 61.5605 122.795 61.3714 122.794 61.178C122.794 61.0501 122.769 60.9235 122.72 60.8054C122.671 60.6873 122.599 60.58 122.509 60.4896C122.418 60.3992 122.311 60.3275 122.193 60.2785C122.075 60.2296 121.948 60.2044 121.82 60.2044Z" fill="white"/>
</g>
<g opacity="0.24">
<path opacity="0.24" d="M150.544 120.68C150.544 121.995 110.014 123.28 76.7391 123.145C43.4648 123.009 11.6388 121.781 11.6445 120.467C11.6503 119.152 42.9242 117.326 76.1985 117.474C109.473 117.621 150.55 119.369 150.544 120.68Z" fill="#565684"/>
</g>
<path d="M71.6165 80.2332L88.7711 118.251H84.533L68.0809 81.3569L71.6165 80.2332Z" fill="#B79C7E"/>
<path d="M50.9349 83.2318L34.9828 118.583H39.2238L54.9359 83.3445L50.9349 83.2318Z" fill="#B79C7E"/>
<path d="M50.6458 39.757C45.8151 41.2996 44.8466 43.7696 43.592 47.7447C42.6119 50.8561 40.412 79.9125 47.3762 84.8121C50.1225 86.739 64.7621 86.349 72.1628 85.985C74.7502 85.8579 79.101 86.3027 79.8353 82.1745L80.4135 68.8539C80.4135 68.8539 65.1726 59.9705 64.1666 57.801C63.1605 55.6314 64.2967 43.0099 64.2967 43.0099C64.2967 43.0099 60.42 36.6399 50.6458 39.757Z" fill="#C4B9FF"/>
<path d="M74.3917 113.559C77.4648 105.47 90.604 82.8418 88.164 78.7627C87.4933 77.6418 83.4316 76.7404 82.9835 76.9975C82.5354 77.2547 70.3618 114.091 70.3618 114.091C70.3618 114.091 74.0304 114.51 74.3917 113.559Z" fill="#F4BEAB"/>
<path d="M82.1018 119.837C79.789 120.724 74.8745 120.002 73.6256 118.904C73.439 118.734 73.2322 118.587 73.0099 118.468C72.9183 118.417 72.8213 118.378 72.7208 118.349C72.6282 118.318 72.5296 118.31 72.4331 118.324C72.3366 118.339 72.245 118.376 72.1657 118.433C72.0483 118.532 71.9636 118.664 71.9229 118.811L68.766 118.687L68.7804 118.306V118.017L68.9019 114.7C70.2461 110.009 77.112 115.977 77.112 115.977L78.6876 116.188C78.6876 116.188 84.5475 118.895 82.1018 119.837Z" fill="#925D9B"/>
<path d="M69.2979 113.149C69.2979 113.149 73.6169 117.714 76.0771 117.598C79.2368 117.448 79.4999 116.703 78.5546 116.105C77.6093 115.507 74.4408 114.389 74.3801 113.704C74.3368 113.178 74.6981 111.8 74.6981 111.8C74.6981 111.8 69.8501 112.219 69.2979 113.149Z" fill="#F4BEAB"/>
<path d="M72.2726 45.448C71.9257 47.4443 71.3273 51.4367 66.3954 49.8218C63.2154 48.776 61.1571 48.1376 60.0817 47.2825C59.8083 47.0901 59.5836 46.8367 59.4255 46.5423C59.2674 46.2479 59.1803 45.9207 59.171 45.5867C59.0959 43.6165 55.9592 26.4825 56.0344 25.6823C56.0604 25.3934 56.2165 24.44 56.4016 23.3336C56.7369 21.3518 57.1763 18.8876 57.1763 18.8876C57.1763 18.8876 57.5261 14.0631 61.1108 14.1383C61.752 14.1522 62.3858 14.2773 62.9842 14.508L63.1142 14.56C63.1482 14.5715 63.1811 14.586 63.2125 14.6034C65.7797 15.6954 67.6385 18.2665 68.4162 20.9358C69.3875 24.2956 68.2687 35.1838 69.6332 37.8214C71.3215 41.0829 72.8046 42.4378 72.2726 45.448Z" fill="#9760A0"/>
<g opacity="0.24">
<path opacity="0.24" d="M68.6359 49.244L68.37 49.1342C68.5348 48.7298 68.7631 48.2676 69.0089 47.7764C70.0987 45.5867 71.4546 42.8653 69.4483 40.7796C67.5056 38.7573 67.4391 33.1847 67.3784 28.2562C67.3553 26.4333 67.335 24.7116 67.2194 23.3249C66.7106 17.2409 62.3829 16.2153 62.3395 16.2067L62.4031 15.9178C62.4494 15.9178 66.9823 17.0011 67.5056 23.2931C67.6241 24.6913 67.6444 26.4189 67.6675 28.2476C67.7253 33.1211 67.7947 38.6476 69.6564 40.5744C71.8044 42.8018 70.3387 45.7484 69.2662 47.9007C69.0262 48.3889 68.8036 48.8482 68.6359 49.244Z" fill="#0C0C0C"/>
</g>
<path d="M69.2256 41.5336C69.2256 41.5336 79.6676 57.8587 80.1157 59.8751C80.5638 61.8916 73.562 62.0765 73.562 62.0765L66.9534 56.0098L69.2256 41.5336Z" fill="#EFEAEA"/>
<path d="M72.7323 60.45C72.7323 60.45 72.9087 57.7518 77.1641 57.1827C79.3207 56.8938 80.2082 59.0114 79.9538 59.878C79.6994 60.7447 77.3346 62.2383 77.1641 62.2383C76.9935 62.2383 72.7323 61.6605 72.7323 61.6605V60.45Z" fill="#D6D4D4"/>
<g opacity="0.24">
<path opacity="0.24" d="M66.4359 39.1994C68.6966 25.0583 62.8425 17.6223 58.7114 20.3956C54.5803 23.1689 55.7569 38.0814 55.9014 38.4309C56.046 38.7805 62.14 46.1443 62.7789 45.8669C63.4178 45.5896 66.115 41.1898 66.4359 39.1994Z" fill="#0C0C0C"/>
</g>
<path d="M67.069 112.522C67.069 112.522 61.2467 116.818 60.5992 119.207C59.9516 121.596 61.4173 122.177 63.1114 121.729C64.8054 121.281 69.6217 118.785 70.6624 114.7C70.9226 113.684 69.3846 112.678 69.3846 112.678L67.069 112.522Z" fill="#BD79C6"/>
<path d="M82.9835 76.9976C82.7782 76.5296 79.6532 74.88 78.4419 75.3682C76.8634 76.0009 71.5702 82.8418 70.3618 91.9245C68.9452 102.596 67.069 112.667 67.069 112.667C67.069 112.667 61.9984 117.378 62.5187 118.733C63.0391 120.088 66.5978 118.297 68.3989 117.049C69.2228 116.471 69.9079 115.174 70.304 114.256C74.0708 105.537 83.1801 77.4396 82.9835 76.9976Z" fill="#FFCCB6"/>
<path d="M61.5994 43.5674C61.5705 44.2925 61.0588 45.786 60.0904 47.2825C58.431 49.8507 55.2597 53.4358 51.0274 52.1271C48.6193 51.3818 47.0148 50.4574 46.0146 49.322C45.922 49.218 45.8353 49.1111 45.7544 49.0014C45.0039 47.9796 44.6135 46.7382 44.6443 45.4711C44.6443 45.2901 44.6443 45.1052 44.6443 44.9165C44.6443 44.7085 44.6703 44.4947 44.6934 44.278C45.0374 40.9876 48.7869 39.1994 50.2266 36.0042C51.4842 33.2136 49.897 25.1969 51.727 19.3382C52.7764 15.9842 55.6239 12.1969 59.4862 12.116C59.7056 12.1105 59.9251 12.123 60.1424 12.1536C61.0138 12.2691 61.8097 12.7085 62.3713 13.3842L62.5708 13.6385C62.7495 13.8878 62.9072 14.1516 63.042 14.4271C63.0651 14.4705 63.0854 14.5138 63.1056 14.56C63.1258 14.6062 63.1316 14.6207 63.1461 14.6496C62.3984 15.3644 61.835 16.2496 61.504 17.2294C61.4535 17.3814 61.4187 17.5382 61.4 17.6974C61.2872 18.7518 61.8654 19.682 62.7327 20.3378C63.2774 20.7498 63.9014 21.0448 64.5655 21.2045C64.7766 22.36 63.2473 23.5156 63.2762 23.8045C63.3571 24.6076 61.6804 41.6 61.5994 43.5674Z" fill="#BD79C6"/>
<g opacity="0.24">
<path opacity="0.24" d="M56.6618 30.6425C57.9395 35.36 56.1327 39.5113 55.0255 40.1902C54.933 40.2451 61.0964 39.7829 61.5532 38.0178C62.7789 33.3725 56.1472 28.7011 56.6618 30.6425Z" fill="#0C0C0C"/>
</g>
<path d="M69.6362 71.9334C69.6362 73.2233 69.382 74.5005 68.888 75.6922C68.394 76.8839 67.67 77.9667 66.7573 78.8787C65.8446 79.7908 64.7611 80.5143 63.5685 81.0079C62.376 81.5016 61.0979 81.7556 59.8071 81.7556H59.7435C57.8024 81.7425 55.9086 81.1553 54.301 80.0681C52.6934 78.9808 51.4439 77.4423 50.7102 75.6464C49.9764 73.8505 49.7912 71.8777 50.1779 69.9768C50.5647 68.0758 51.506 66.3319 52.8832 64.9649C54.2605 63.5979 56.0119 62.669 57.9168 62.2953C59.8216 61.9217 61.7945 62.12 63.5866 62.8654C65.3788 63.6107 66.91 64.8696 67.9871 66.4834C69.0642 68.0972 69.639 69.9936 69.6391 71.9334H69.6362Z" fill="#4183C4"/>
<path d="M58.5466 32.9333C58.5466 32.9333 59.2636 39.4189 55.6788 40.0169H65.9849C65.9849 40.0169 61.9694 38.9711 63.4438 32.4769C63.4438 32.4885 60.2233 31.0873 58.5466 32.9333Z" fill="#FFCCB6"/>
<path d="M69.2314 65.1185L53.6494 65.4276C53.6494 65.4276 53.5627 64.9654 53.4181 64.1681C52.6145 59.8001 50.1514 45.3556 51.3483 42.4465C51.4029 42.2947 51.4943 42.1587 51.6142 42.0507L51.6489 42.0247C51.7327 41.9554 51.8137 41.8918 51.8975 41.8283C53.0065 40.9589 54.2952 40.3471 55.6702 40.0372H65.9791C67.0218 40.3855 68.0439 40.7925 69.0406 41.2563C69.5292 41.4989 70.4485 45.7918 72.131 50.8618C73.2584 54.2361 69.2314 65.1185 69.2314 65.1185Z" fill="white"/>
<path d="M57.4279 39.6472L62.5882 46.3812L65.985 40.0256C65.985 40.0256 68.899 40.716 69.2286 41.47C69.4252 41.9236 62.7327 47.9556 62.7327 47.9556L52.681 41.2043C53.278 40.5676 54.0257 40.0913 54.8552 39.8192C55.6848 39.5471 56.5695 39.4879 57.4279 39.6472Z" fill="#F4E6E6"/>
<path d="M75.3891 59.8838C74.2848 60.7072 73.1342 61.7096 73.2672 62.2383L81.3328 62.3279C81.3328 62.3279 81.5525 61.103 79.9539 59.8781C79.2959 59.3828 78.4943 59.1154 77.6705 59.1165C76.8468 59.1175 76.0458 59.3869 75.3891 59.8838Z" fill="#DDA794"/>
<path d="M88.1727 78.7627C84.2774 78.0265 80.2476 78.7958 76.8981 80.9149C75.6695 81.692 73.6892 82.7089 72.5213 84.032L70.8128 83.7258L70.5757 83.6825L59.7406 81.7556L56.6126 81.224L58.59 78.6789L68.0201 66.5456C68.0201 66.5456 80.1851 71.3498 86.2329 76.7578L86.4902 76.9918C87.0986 77.5351 87.6613 78.1274 88.1727 78.7627Z" fill="#4183C4"/>
<g opacity="0.24">
<path opacity="0.24" d="M76.8981 80.9149C75.6695 81.692 73.6892 82.7089 72.5213 84.032L59.7406 81.7556C58.0143 81.7446 56.3214 81.2795 54.8321 80.407C53.3428 79.5345 52.1098 78.2855 51.257 76.7856C50.4043 75.2856 49.9618 73.5877 49.9743 71.8626C49.9868 70.1375 50.4537 68.4462 51.3281 66.9587C52.0479 66.9587 52.603 66.9211 52.603 66.9211C52.603 66.9211 51.9496 76.2985 58.59 78.6789C65.2304 81.0594 76.8981 80.9149 76.8981 80.9149Z" fill="#0C0C0C"/>
</g>
<path d="M97.7126 68.3309V119.97L94.4488 119.967L91.9048 70.9309L91.7979 68.8394L97.7126 68.3309Z" fill="#D1B48F"/>
<g opacity="0.24">
<path opacity="0.24" d="M97.7126 68.8394V70.9309H91.9048L91.7979 68.8394H97.7126Z" fill="black"/>
</g>
<path d="M21.1932 68.8394L21.0863 70.9309L18.5134 120.478H15.2784V68.8394H21.1932Z" fill="#D1B48F"/>
<path d="M126.13 68.8394V120.478H122.895L120.328 70.9309L120.218 68.8394H126.13Z" fill="#D1B48F"/>
<path d="M27.1658 27.8778C31.9668 27.8778 35.8588 23.9886 35.8588 19.1909C35.8588 14.3933 31.9668 10.504 27.1658 10.504C22.3648 10.504 18.4728 14.3933 18.4728 19.1909C18.4728 23.9886 22.3648 27.8778 27.1658 27.8778Z" fill="#C4B9FF"/>
<path d="M27.1745 26.8234C25.6636 26.8245 24.1863 26.3778 22.9296 25.5399C21.6728 24.7019 20.6929 23.5103 20.1139 22.1157C19.535 20.7212 19.3829 19.1864 19.6769 17.7054C19.971 16.2245 20.698 14.864 21.7659 13.796C22.8338 12.728 24.1947 12.0005 25.6765 11.7056C27.1582 11.4106 28.6942 11.5614 30.0902 12.1389C31.4861 12.7164 32.6793 13.6947 33.5188 14.95C34.3584 16.2052 34.8064 17.6811 34.8065 19.1909C34.8042 21.2135 33.9995 23.1526 32.5689 24.5833C31.1383 26.014 29.1984 26.8195 27.1745 26.8234ZM27.1745 11.8734C25.7258 11.8716 24.3092 12.2994 23.1038 13.1024C21.8985 13.9054 20.9586 15.0476 20.403 16.3846C19.8474 17.7216 19.7012 19.1931 19.9828 20.6132C20.2643 22.0332 20.9611 23.3379 21.9848 24.3621C23.0085 25.3864 24.3133 26.0842 25.734 26.3672C27.1547 26.6503 28.6275 26.5059 29.966 25.9523C31.3046 25.3987 32.4487 24.4608 33.2538 23.2572C34.0588 22.0537 34.4885 20.6386 34.4885 19.1909C34.4862 17.2524 33.7151 15.3938 32.3442 14.0222C30.9733 12.6506 29.1143 11.8779 27.1745 11.8734Z" fill="#8C85C9"/>
<path d="M27.851 19.2314C27.851 19.3554 27.8142 19.4766 27.7452 19.5797C27.6763 19.6828 27.5783 19.7631 27.4637 19.8106C27.3491 19.858 27.2229 19.8704 27.1013 19.8462C26.9796 19.822 26.8678 19.7623 26.7801 19.6747C26.6923 19.587 26.6326 19.4753 26.6084 19.3537C26.5842 19.2321 26.5966 19.106 26.6441 18.9915C26.6915 18.8769 26.772 18.779 26.8751 18.7101C26.9783 18.6413 27.0996 18.6045 27.2236 18.6045C27.3061 18.6041 27.3879 18.6201 27.4642 18.6514C27.5404 18.6828 27.6098 18.729 27.6681 18.7873C27.7264 18.8455 27.7726 18.9148 27.804 18.991C27.8354 19.0673 27.8514 19.149 27.851 19.2314Z" fill="#8C85C9"/>
<path d="M27.3914 19.4596C27.3455 19.4599 27.3001 19.45 27.2586 19.4305C27.217 19.411 27.1804 19.3824 27.1514 19.3469C27.1237 19.3162 27.1023 19.2803 27.0885 19.2413C27.0746 19.2023 27.0686 19.161 27.0707 19.1197C27.0729 19.0784 27.0832 19.0379 27.101 19.0005C27.1188 18.9632 27.1438 18.9297 27.1746 18.902L29.6434 16.8076C29.7074 16.7517 29.791 16.7234 29.8759 16.7291C29.9179 16.7319 29.9589 16.743 29.9967 16.7617C30.0344 16.7803 30.0681 16.8062 30.0958 16.8379C30.1235 16.8696 30.1447 16.9064 30.1582 16.9463C30.1717 16.9861 30.1772 17.0283 30.1743 17.0703C30.1715 17.1122 30.1605 17.1533 30.1418 17.191C30.1231 17.2287 30.0972 17.2623 30.0655 17.29L27.5966 19.3845C27.5389 19.4323 27.4664 19.4588 27.3914 19.4596Z" fill="#8C85C9"/>
<path d="M27.0907 19.6445C27.0696 19.6475 27.0482 19.6475 27.0271 19.6445L23.4886 18.9136C23.4481 18.9057 23.4095 18.8898 23.3751 18.8669C23.3408 18.8439 23.3113 18.8144 23.2885 18.78C23.2656 18.7456 23.2498 18.707 23.242 18.6665C23.2342 18.626 23.2345 18.5843 23.2429 18.5439C23.2596 18.4622 23.3078 18.3905 23.377 18.344C23.4462 18.2975 23.531 18.2801 23.6129 18.2954L27.1514 19.0147C27.2291 19.0297 27.2984 19.0732 27.3457 19.1365C27.3931 19.1998 27.4151 19.2785 27.4076 19.3572C27.4 19.4359 27.3633 19.509 27.3047 19.5621C27.2461 19.6152 27.1698 19.6446 27.0907 19.6445Z" fill="#8C85C9"/>
<path d="M100.835 24.6596H90.3582C89.8377 24.6596 89.4158 25.0813 89.4158 25.6014V30.4836C89.4158 31.0037 89.8377 31.4254 90.3582 31.4254H100.835C101.355 31.4254 101.777 31.0037 101.777 30.4836V25.6014C101.777 25.0813 101.355 24.6596 100.835 24.6596Z" fill="#BD79C6"/>
<path d="M100.387 26.7627H91.1792C91.136 26.7627 91.0945 26.7457 91.0637 26.7155C91.0329 26.6852 91.0152 26.6441 91.0144 26.6009C91.0151 26.5574 91.0327 26.516 91.0635 26.4853C91.0942 26.4545 91.1357 26.437 91.1792 26.4362H100.387C100.43 26.437 100.472 26.4545 100.502 26.4853C100.533 26.516 100.551 26.5574 100.552 26.6009C100.551 26.6441 100.533 26.6852 100.502 26.7155C100.471 26.7457 100.43 26.7627 100.387 26.7627Z" fill="#7E4C87"/>
<path d="M98.1838 28.2042H91.3266C91.2837 28.2042 91.2425 28.1872 91.2121 28.1568C91.1818 28.1265 91.1647 28.0854 91.1647 28.0425C91.1647 27.9995 91.1818 27.9584 91.2121 27.9281C91.2425 27.8977 91.2837 27.8807 91.3266 27.8807H98.1838C98.2268 27.8807 98.268 27.8977 98.2983 27.9281C98.3287 27.9584 98.3457 27.9995 98.3457 28.0425C98.3457 28.0854 98.3287 28.1265 98.2983 28.1568C98.268 28.1872 98.2268 28.2042 98.1838 28.2042Z" fill="#7E4C87"/>
<path d="M98.3313 29.6487H91.1792C91.1357 29.648 91.0942 29.6304 91.0635 29.5997C91.0327 29.569 91.0151 29.5275 91.0144 29.4841C91.0152 29.4409 91.0329 29.3998 91.0637 29.3695C91.0945 29.3392 91.136 29.3223 91.1792 29.3223H98.3313C98.3528 29.3219 98.3742 29.3258 98.3941 29.3338C98.4141 29.3417 98.4323 29.3536 98.4476 29.3686C98.463 29.3837 98.4752 29.4017 98.4835 29.4215C98.4918 29.4413 98.4961 29.4626 98.4961 29.4841C98.4961 29.5277 98.4787 29.5696 98.4478 29.6005C98.4169 29.6314 98.375 29.6487 98.3313 29.6487Z" fill="#7E4C87"/>
<path d="M114.33 27.6813H108.672C107.705 27.6813 106.92 28.4651 106.92 29.432V32.1678C106.92 33.1346 107.705 33.9184 108.672 33.9184H114.33C115.297 33.9184 116.081 33.1346 116.081 32.1678V29.432C116.081 28.4651 115.297 27.6813 114.33 27.6813Z" fill="#4183C4"/>
<path d="M114.723 29.5216H108.392C108.348 29.5208 108.307 29.5032 108.276 29.4725C108.245 29.4418 108.228 29.4003 108.227 29.3569C108.228 29.3137 108.245 29.2726 108.276 29.2423C108.307 29.2121 108.349 29.1951 108.392 29.1951H114.723C114.766 29.1951 114.807 29.2122 114.837 29.2425C114.868 29.2729 114.885 29.314 114.885 29.3569C114.885 29.4001 114.868 29.4415 114.837 29.4723C114.807 29.5031 114.766 29.5208 114.723 29.5216Z" fill="#2F6591"/>
<path d="M113.208 30.9631H108.493C108.47 30.9662 108.446 30.9643 108.423 30.9576C108.401 30.9508 108.38 30.9393 108.363 30.9238C108.345 30.9084 108.331 30.8893 108.321 30.8679C108.311 30.8466 108.306 30.8234 108.306 30.7999C108.306 30.7765 108.311 30.7533 108.321 30.7319C108.331 30.7105 108.345 30.6915 108.363 30.676C108.38 30.6606 108.401 30.6491 108.423 30.6423C108.446 30.6355 108.47 30.6336 108.493 30.6367H113.208C113.231 30.6336 113.255 30.6355 113.277 30.6423C113.3 30.6491 113.321 30.6606 113.338 30.676C113.356 30.6915 113.37 30.7105 113.38 30.7319C113.39 30.7533 113.395 30.7765 113.395 30.7999C113.395 30.8234 113.39 30.8466 113.38 30.8679C113.37 30.8893 113.356 30.9084 113.338 30.9238C113.321 30.9393 113.3 30.9508 113.277 30.9576C113.255 30.9643 113.231 30.9662 113.208 30.9631Z" fill="#2F6591"/>
<path d="M113.324 32.4047H108.409C108.386 32.4078 108.362 32.4059 108.34 32.3991C108.317 32.3924 108.296 32.3809 108.279 32.3654C108.261 32.3499 108.247 32.3309 108.237 32.3095C108.227 32.2882 108.222 32.265 108.222 32.2415C108.222 32.218 108.227 32.1949 108.237 32.1735C108.247 32.1521 108.261 32.1331 108.279 32.1176C108.296 32.1022 108.317 32.0907 108.34 32.0839C108.362 32.0771 108.386 32.0752 108.409 32.0783H113.324C113.347 32.0752 113.371 32.0771 113.393 32.0839C113.415 32.0907 113.436 32.1022 113.454 32.1176C113.472 32.1331 113.486 32.1521 113.495 32.1735C113.505 32.1949 113.51 32.218 113.51 32.2415C113.51 32.265 113.505 32.2882 113.495 32.3095C113.486 32.3309 113.472 32.3499 113.454 32.3654C113.436 32.3809 113.415 32.3924 113.393 32.3991C113.371 32.4059 113.347 32.4078 113.324 32.4047Z" fill="#2F6591"/>
<path d="M101.474 36.3654H94.8333C94.1372 36.3654 93.5729 36.9293 93.5729 37.6249V41.3429C93.5729 42.0385 94.1372 42.6025 94.8333 42.6025H101.474C102.17 42.6025 102.734 42.0385 102.734 41.3429V37.6249C102.734 36.9293 102.17 36.3654 101.474 36.3654Z" fill="#C4B9FF"/>
<path d="M101.497 38.1334H95.1658C95.1229 38.1334 95.0817 38.1163 95.0513 38.086C95.021 38.0556 95.0039 38.0145 95.0039 37.9716C95.0039 37.9287 95.021 37.8875 95.0513 37.8572C95.0817 37.8269 95.1229 37.8098 95.1658 37.8098H101.497C101.54 37.8098 101.581 37.8269 101.611 37.8572C101.642 37.8875 101.659 37.9287 101.659 37.9716C101.659 38.0145 101.642 38.0556 101.611 38.086C101.581 38.1163 101.54 38.1334 101.497 38.1334Z" fill="#9B95D1"/>
<path d="M99.985 39.5778H95.267C95.2238 39.577 95.1826 39.5594 95.1523 39.5286C95.1221 39.4978 95.1051 39.4563 95.1051 39.4131C95.1051 39.3702 95.1222 39.3291 95.1525 39.2987C95.1829 39.2684 95.2241 39.2513 95.267 39.2513H99.985C100.028 39.2513 100.069 39.2684 100.099 39.2987C100.13 39.3291 100.147 39.3702 100.147 39.4131C100.147 39.4563 100.13 39.4978 100.1 39.5286C100.069 39.5594 100.028 39.577 99.985 39.5778Z" fill="#9B95D1"/>
<path d="M100.086 41.0222H95.1716C95.132 41.017 95.0957 40.9975 95.0694 40.9675C95.0431 40.9375 95.0286 40.8989 95.0286 40.859C95.0286 40.8191 95.0431 40.7806 95.0694 40.7506C95.0957 40.7205 95.132 40.7011 95.1716 40.6958H100.086C100.126 40.7011 100.162 40.7205 100.188 40.7506C100.215 40.7806 100.229 40.8191 100.229 40.859C100.229 40.8989 100.215 40.9375 100.188 40.9675C100.162 40.9975 100.126 41.017 100.086 41.0222Z" fill="#9B95D1"/>
<g opacity="0.24">
<path opacity="0.24" d="M21.1932 68.8394L21.0863 70.9309H15.2784V68.8394H21.1932Z" fill="black"/>
</g>
<g opacity="0.24">
<path opacity="0.24" d="M126.13 68.8394V70.9309H120.328L120.218 68.8394H126.13Z" fill="black"/>
</g>
<path d="M51.9004 68.8394L51.7934 70.9309L49.2234 121.148H45.9856V68.8394H51.9004Z" fill="#D1B48F"/>
<g opacity="0.24">
<path opacity="0.24" d="M51.9004 68.8394L51.7934 70.9309H45.9856V68.8394H51.9004Z" fill="black"/>
</g>
<path d="M150.006 102.787L148.09 115.816L147.85 117.451C147.732 118.249 147.332 118.978 146.721 119.505C146.11 120.033 145.329 120.322 144.522 120.322H135.873C135.049 120.322 134.255 120.019 133.639 119.473C133.024 118.926 132.631 118.172 132.534 117.355L132.372 115.974L130.814 102.738C130.785 102.498 130.807 102.256 130.88 102.026C130.952 101.796 131.072 101.584 131.232 101.404C131.392 101.224 131.588 101.079 131.808 100.981C132.028 100.882 132.267 100.831 132.508 100.831H148.304C148.55 100.829 148.794 100.881 149.018 100.982C149.243 101.083 149.443 101.232 149.605 101.418C149.767 101.603 149.886 101.822 149.956 102.058C150.025 102.295 150.042 102.543 150.006 102.787Z" fill="#9E63A8"/>
<path d="M134.196 84.6791C136.945 84.6791 138.532 89.5527 138.151 91.962C137.769 94.3714 138.729 99.6205 138.729 99.6205C138.729 99.6205 134.526 100.776 134.682 92.6323C134.716 90.6158 132.051 84.682 134.196 84.6791Z" fill="#8380C1"/>
<path d="M144.066 88.5011C144.066 88.5011 146.274 84.1678 147.494 84.552C148.714 84.9362 149.706 89.6596 148.94 91.26C148.174 92.8605 146.205 100.406 144.063 100.178C141.92 99.9498 137.879 97.7282 138.717 96.096C139.556 94.4638 144.066 88.5011 144.066 88.5011Z" fill="#A099E0"/>
<path d="M139.18 103.203C138.845 101.599 136.812 97.7427 136.636 96.096C135.89 95.3796 133.002 91.7136 130.88 91.9187C128.521 92.1469 132.996 98.7971 135.858 101.813C135.902 100.998 139.342 104.017 139.18 103.203Z" fill="#A099E0"/>
<path d="M146.358 101.773C145.511 102.155 144.604 102.387 143.678 102.457C143.479 102.48 143.279 102.504 143.077 102.518C141.344 102.632 139.604 102.617 137.873 102.472C137.367 102.431 136.892 102.21 136.535 101.848C136.428 101.738 136.306 101.611 136.17 101.475C135.803 101.097 135.491 99.0369 135.393 98.5256C135.147 97.2054 134.705 84.5607 140.437 76.3014C141.056 75.4058 141.724 75.0216 142.325 74.9956C142.447 74.9897 142.569 74.9985 142.689 75.0216C143.557 75.1949 144.242 76.1252 144.329 77.2605C144.71 82.2727 144.837 90.0669 142.305 92.8114C138.443 96.98 141.149 98.6469 142.406 97.3989C143.406 96.4052 145.722 91.2514 147.413 91.4969C147.521 91.5144 147.625 91.5516 147.72 91.6067C148.035 91.7916 148.321 92.2047 148.561 92.9154C150.116 97.5029 148.968 100.421 146.358 101.773Z" fill="#C4B9FF"/>
<path d="M138.307 101.706C138.31 101.726 138.309 101.746 138.305 101.765C138.3 101.785 138.291 101.803 138.28 101.819C138.268 101.835 138.253 101.848 138.236 101.858C138.218 101.868 138.199 101.874 138.18 101.877H138.156C138.12 101.876 138.085 101.863 138.057 101.839C138.03 101.816 138.012 101.783 138.006 101.747C137.977 101.565 135.474 84.188 142.319 74.9927C142.441 74.9867 142.564 74.9954 142.684 75.0187C135.766 84.0667 138.281 101.524 138.307 101.706Z" fill="#A099E0"/>
<path d="M147.708 91.6067C147.546 93.6809 146.812 99.8863 143.678 102.457C143.065 102.974 142.333 103.33 141.548 103.494L141.487 103.206C142.057 103.089 142.598 102.859 143.077 102.53C146.459 100.244 147.246 93.5192 147.413 91.5085C147.516 91.5237 147.616 91.5569 147.708 91.6067Z" fill="#A099E0"/>
<path d="M138.55 84.6791C138.531 84.6794 138.512 84.6759 138.495 84.669C138.478 84.662 138.462 84.6517 138.449 84.6386C138.434 84.6247 138.423 84.608 138.415 84.5897C138.408 84.5713 138.404 84.5516 138.404 84.5318C138.404 84.5119 138.408 84.4922 138.415 84.4738C138.423 84.4555 138.434 84.4388 138.449 84.4249L142.334 80.1667C142.361 80.1372 142.399 80.1197 142.439 80.118C142.479 80.1164 142.518 80.1308 142.548 80.158C142.577 80.1852 142.595 80.223 142.596 80.2631C142.598 80.3032 142.584 80.3423 142.556 80.3718L138.662 84.6444C138.647 84.6575 138.629 84.6673 138.61 84.6733C138.59 84.6792 138.57 84.6812 138.55 84.6791Z" fill="#A099E0"/>
<path d="M137.925 90.7892C137.887 90.79 137.85 90.7766 137.821 90.7516C137.793 90.7225 137.777 90.6837 137.777 90.6433C137.777 90.6029 137.793 90.564 137.821 90.5349L141.417 86.5714C141.431 86.5569 141.448 86.5453 141.466 86.5374C141.485 86.5295 141.504 86.5255 141.524 86.5255C141.544 86.5255 141.564 86.5295 141.583 86.5374C141.601 86.5453 141.618 86.5569 141.631 86.5714C141.646 86.5854 141.657 86.602 141.664 86.6204C141.672 86.6387 141.676 86.6584 141.676 86.6783C141.676 86.6982 141.672 86.7179 141.664 86.7362C141.657 86.7546 141.646 86.7712 141.631 86.7852L138.038 90.74C138.008 90.7706 137.968 90.7882 137.925 90.7892Z" fill="#A099E0"/>
<path d="M137.708 96.3185C137.682 96.3191 137.656 96.3124 137.633 96.2991C137.61 96.2859 137.591 96.2666 137.578 96.2434C137.098 95.4489 135.844 93.3545 135.783 93.2736C135.769 93.257 135.759 93.2378 135.754 93.2171C135.748 93.1963 135.747 93.1747 135.75 93.1534C135.753 93.1322 135.761 93.1118 135.772 93.0937C135.784 93.0756 135.799 93.0602 135.817 93.0483C135.835 93.0365 135.855 93.0286 135.876 93.0251C135.898 93.0216 135.919 93.0226 135.94 93.0281C135.961 93.0335 135.98 93.0433 135.997 93.0567C136.014 93.0701 136.028 93.087 136.038 93.1061C136.116 93.2216 137.772 95.9689 137.839 96.0874C137.849 96.1044 137.856 96.1233 137.859 96.143C137.862 96.1628 137.861 96.1829 137.856 96.2023C137.851 96.2216 137.843 96.2398 137.831 96.2558C137.819 96.2718 137.804 96.2852 137.787 96.2954C137.763 96.3096 137.736 96.3175 137.708 96.3185Z" fill="#A099E0"/>
<path d="M145.788 99.3778C145.757 99.3781 145.727 99.3689 145.701 99.3513C145.675 99.3338 145.655 99.3088 145.644 99.2796L144.58 96.4572C144.573 96.4382 144.57 96.418 144.571 96.3978C144.571 96.3776 144.576 96.3577 144.585 96.3394C144.593 96.321 144.605 96.3044 144.62 96.2907C144.635 96.277 144.652 96.2663 144.671 96.2593C144.69 96.2522 144.71 96.249 144.731 96.2498C144.751 96.2506 144.771 96.2553 144.789 96.2638C144.807 96.2722 144.824 96.2842 144.838 96.2991C144.851 96.3139 144.862 96.3313 144.869 96.3503L145.936 99.1727C145.95 99.2107 145.948 99.2526 145.932 99.2894C145.915 99.3262 145.884 99.3549 145.846 99.3692L145.788 99.3778Z" fill="#A099E0"/>
<path d="M138.336 100.984C138.304 100.984 138.273 100.975 138.246 100.958C138.214 100.934 138.192 100.898 138.185 100.859C138.178 100.819 138.186 100.778 138.209 100.744C138.261 100.669 139.498 98.8953 140.16 98.3147C140.191 98.292 140.229 98.2819 140.268 98.2863C140.306 98.2907 140.341 98.3093 140.366 98.3384C140.391 98.3675 140.405 98.405 140.403 98.4434C140.402 98.4818 140.386 98.5184 140.359 98.5458C139.726 99.1004 138.472 100.9 138.46 100.918C138.446 100.938 138.428 100.955 138.406 100.966C138.384 100.978 138.36 100.984 138.336 100.984Z" fill="#A099E0"/>
<path d="M150.006 102.787L149.717 104.832L149.677 105.138L148.278 114.634C148.189 115.29 147.904 115.904 147.459 116.395C147.014 116.885 146.43 117.229 145.786 117.381C145.501 117.445 145.21 117.476 144.918 117.474H135.393C134.594 117.454 133.829 117.145 133.241 116.605C132.652 116.065 132.28 115.33 132.193 114.536L131.088 105.138L131.051 104.832L130.805 102.738C130.776 102.498 130.799 102.256 130.871 102.026C130.943 101.796 131.063 101.584 131.223 101.404C131.383 101.224 131.58 101.079 131.8 100.981C132.019 100.882 132.258 100.831 132.499 100.831H148.304C148.55 100.829 148.794 100.881 149.019 100.982C149.243 101.083 149.443 101.232 149.605 101.418C149.767 101.603 149.886 101.822 149.956 102.058C150.025 102.295 150.042 102.543 150.006 102.787Z" fill="#BD79C6"/>
<path d="M149.703 104.832L149.662 105.138H131.088L131.051 104.832H149.703Z" fill="#9E63A8"/>
<path d="M56.2339 39.5778L62.5882 46.3811L65.985 40.0285L62.0215 39.1993L56.2339 39.5778Z" fill="#FFCCB6"/>
<g opacity="0.24">
<path opacity="0.24" d="M58.5466 32.9334C58.5466 32.9334 62.8454 33.3378 63.5768 32.5434C63.4377 32.9072 63.2724 33.2606 63.0825 33.6007C62.7934 34.0225 61.5185 34.2074 60.8304 34.1785C60.3825 34.1474 59.9466 34.0201 59.5524 33.8052C59.1583 33.5903 58.8152 33.293 58.5466 32.9334Z" fill="#333232"/>
</g>
<path d="M66.5516 25.6938C66.5516 30.1485 64.3227 33.7596 61.082 33.7596C57.8413 33.7596 55.2163 30.1485 55.2163 25.6938C55.2163 21.2391 57.8384 17.6223 61.082 17.6223C64.3256 17.6223 66.5516 21.2391 66.5516 25.6938Z" fill="#FFCCB6"/>
<path d="M61.4 28.6174C61.3849 28.6217 61.3688 28.6217 61.3537 28.6174C61.3407 28.6115 61.3289 28.6031 61.3192 28.5925C61.3095 28.582 61.3019 28.5697 61.2971 28.5562C61.2922 28.5427 61.2901 28.5284 61.2909 28.5141C61.2917 28.4998 61.2954 28.4858 61.3017 28.473C61.4029 28.265 62.0099 27.7854 62.3337 27.5427C62.0593 27.3886 61.8269 27.1693 61.6573 26.9043C61.2872 26.3756 60.9663 25.5494 61.1716 24.807C61.1753 24.7932 61.1816 24.7804 61.1903 24.7691C61.199 24.7579 61.2099 24.7485 61.2223 24.7415C61.2347 24.7345 61.2483 24.73 61.2625 24.7284C61.2766 24.7267 61.2909 24.7279 61.3046 24.7318C61.3183 24.7355 61.3312 24.7419 61.3424 24.7506C61.3537 24.7593 61.3631 24.7701 61.3701 24.7825C61.3771 24.7949 61.3815 24.8085 61.3832 24.8227C61.3849 24.8368 61.3837 24.8511 61.3797 24.8647C61.1976 25.535 61.4925 26.2918 61.8336 26.7801C61.9965 27.0706 62.2627 27.2892 62.5795 27.3925C62.6012 27.3949 62.6218 27.4035 62.6388 27.4173C62.6557 27.4312 62.6682 27.4497 62.6749 27.4705C62.6802 27.4921 62.6792 27.5147 62.6721 27.5357C62.6649 27.5567 62.6518 27.5752 62.6344 27.589C62.2189 27.8703 61.8377 28.1989 61.4983 28.5683C61.4874 28.5842 61.4727 28.597 61.4555 28.6056C61.4383 28.6142 61.4192 28.6183 61.4 28.6174Z" fill="#DDA794"/>
<path d="M61.2872 30.4807C60.7991 30.4922 60.3175 30.3671 59.8967 30.1196C59.8725 30.1059 59.8534 30.0846 59.8424 30.059C59.8315 30.0335 59.8292 30.005 59.836 29.978C59.8446 29.9506 59.8637 29.9277 59.8891 29.9142C59.9146 29.9007 59.9443 29.8977 59.9719 29.9058C59.9848 29.9086 59.9969 29.9141 60.0074 29.9221C60.0179 29.9301 60.0265 29.9403 60.0326 29.952C60.4516 30.1693 60.9196 30.2752 61.3914 30.2595C61.8633 30.2438 62.3232 30.1071 62.7269 29.8625C62.7392 29.8553 62.7528 29.8507 62.7669 29.8488C62.781 29.847 62.7954 29.8479 62.8091 29.8517C62.8228 29.8555 62.8357 29.8619 62.8469 29.8707C62.8581 29.8795 62.8674 29.8905 62.8743 29.9029C62.882 29.9149 62.8872 29.9284 62.8895 29.9425C62.8917 29.9565 62.8911 29.9709 62.8876 29.9847C62.884 29.9986 62.8777 30.0115 62.869 30.0228C62.8602 30.034 62.8493 30.0434 62.8367 30.0502C62.3684 30.3303 61.8331 30.479 61.2872 30.4807Z" fill="#DDA794"/>
<path d="M56.1356 23.7294C55.9274 23.7814 56.5663 22.9927 58.2517 22.9003C58.7577 22.8714 59.5873 22.9292 59.7579 23.1169C59.9285 23.3047 59.8417 23.7294 58.9427 23.6341C58.0082 23.5089 57.0594 23.5411 56.1356 23.7294Z" fill="#76497F"/>
<path d="M58.1073 25.2258C58.0581 25.5667 58.194 25.8671 58.3963 25.896C58.5987 25.9249 58.8213 25.6736 58.8676 25.3356C58.9138 24.9976 58.7808 24.6942 58.5785 24.6653C58.3761 24.6365 58.1651 24.8878 58.1073 25.2258Z" fill="#2B2B2B"/>
<path d="M57.3151 24.7058L59.0555 24.5729L59.0323 25.1102L57.3296 24.8762L57.3151 24.7058Z" fill="#2B2B2B"/>
<path d="M65.9474 23.8073C66.1556 23.8593 65.6005 22.984 63.9238 22.8916C63.4179 22.8656 62.9842 22.828 62.7414 22.9811C62.3338 23.2382 62.7674 23.7409 63.3196 23.6513C64.1974 23.5349 65.0895 23.5878 65.9474 23.8073Z" fill="#76497F"/>
<path d="M64.736 25.2981C64.7678 25.639 64.6204 25.9336 64.4065 25.9538C64.1926 25.9741 63.996 25.7141 63.9613 25.3761C63.9266 25.0381 64.0769 24.7405 64.2908 24.7203C64.5048 24.7001 64.7042 24.9572 64.736 25.2981Z" fill="#2B2B2B"/>
<path d="M65.3143 24.8358L63.5971 24.5238L63.5653 25.0582L65.2825 25.0005L65.3143 24.8358Z" fill="#2B2B2B"/>
<path d="M61.3595 31.3011C61.1609 31.3051 60.9671 31.2409 60.8102 31.1191C60.8 31.1092 60.7919 31.0973 60.7863 31.0841C60.7808 31.071 60.7779 31.0569 60.7779 31.0426C60.7779 31.0283 60.7808 31.0142 60.7863 31.001C60.7919 30.9879 60.8 30.976 60.8102 30.966C60.8307 30.9461 60.8582 30.9349 60.8868 30.9349C60.9154 30.9349 60.9429 30.9461 60.9634 30.966C61.0909 31.054 61.2422 31.1011 61.3971 31.1011C61.552 31.1011 61.7032 31.054 61.8307 30.966C61.8557 30.9523 61.8851 30.9489 61.9126 30.9564C61.9401 30.964 61.9636 30.9819 61.9781 31.0065C61.9853 31.0188 61.99 31.0324 61.9918 31.0465C61.9937 31.0606 61.9927 31.0749 61.9889 31.0886C61.9851 31.1024 61.9787 31.1152 61.9699 31.1264C61.9611 31.1376 61.9501 31.1469 61.9377 31.1538C61.7612 31.2526 61.5618 31.3034 61.3595 31.3011Z" fill="#DDA794"/>
<path d="M53.4818 48.5883C53.4818 48.5883 55.1441 56.0618 53.8085 57.9454C53.1667 58.8496 54.0571 60.2102 56.8439 59.2945C59.6308 58.3787 66.1498 57.8327 66.673 58.9391C66.673 58.9391 67.8294 55.5303 60.553 57.3994C57.5753 58.162 55.465 57.9771 55.3927 56.3334C55.3204 54.6896 53.4818 48.5883 53.4818 48.5883Z" fill="#EFEAEA"/>
<path d="M51.3541 42.4349C51.3541 42.4349 43.4417 56.5038 44.4361 64.168H65.5629C65.5629 64.168 67.9999 58.1678 65.7074 57.4715C63.4149 56.7753 54.1091 60.5511 53.8113 58.5607C53.5136 56.5702 56.1241 51.8931 55.2105 48.9089C54.297 45.9247 51.3541 42.4349 51.3541 42.4349Z" fill="white"/>
<path d="M66.6065 58.76C68.1154 58.4896 69.6686 58.6119 71.1164 59.1153C73.2527 59.8173 75.6522 62.3278 75.6522 62.3278L71.5731 62.2382C71.5731 62.2382 71.5731 62.3913 70.3358 62.3913C69.0985 62.3913 66.6008 62.5907 66.6008 62.5907L66.6065 58.76Z" fill="#FFCCB6"/>
<path d="M44.4362 60.3113H25.6857V64.1651H44.4362V60.3113Z" fill="#9BB2BA"/>
<path d="M58.6566 60.3113H42.3489V64.1593H58.6566V60.3113Z" fill="#BFD4DD"/>
<g opacity="0.65">
<path opacity="0.65" d="M58.6566 61.0567H25.6857V61.3831H58.6566V61.0567Z" fill="#52767F"/>
</g>
<g opacity="0.65">
<path opacity="0.65" d="M58.6566 62.0765H25.6857V62.4029H58.6566V62.0765Z" fill="#52767F"/>
</g>
<g opacity="0.65">
<path opacity="0.65" d="M58.6566 63.1425H25.6857V63.4689H58.6566V63.1425Z" fill="#52767F"/>
</g>
<path d="M81.1535 62.2382H64.0798V64.1536H81.1535V62.2382Z" fill="#8988E5"/>
<path d="M86.4786 46.2512L76.6842 64.168H104.613L113.558 46.8983L86.4786 46.2512Z" fill="#8988E5"/>
<path d="M87.5511 46.2771L77.7683 64.168H105.697L114.642 46.8982L87.5511 46.2771Z" fill="#C5C3F4"/>
<path d="M75.2821 62.816H73.2469C73.1096 62.816 72.9983 62.9273 72.9983 63.0645V63.4371C72.9983 63.5744 73.1096 63.6856 73.2469 63.6856H75.2821C75.4194 63.6856 75.5307 63.5744 75.5307 63.4371V63.0645C75.5307 62.9273 75.4194 62.816 75.2821 62.816Z" fill="#6867A5"/>
<path d="M70.9603 62.816H68.9597C68.8129 62.816 68.6938 62.935 68.6938 63.0818V63.4198C68.6938 63.5666 68.8129 63.6856 68.9597 63.6856H70.9603C71.1071 63.6856 71.2262 63.5666 71.2262 63.4198V63.0818C71.2262 62.935 71.1071 62.816 70.9603 62.816Z" fill="#6867A5"/>
<path d="M59.2636 27.2827C58.3732 27.2827 57.6996 26.9938 57.6996 26.5778C57.6996 26.1618 58.3732 25.8729 59.2636 25.8729C60.154 25.8729 60.8247 26.1618 60.8247 26.5778C60.8247 26.9938 60.1511 27.2827 59.2636 27.2827ZM59.2636 26.0896C58.4917 26.0896 57.9164 26.3467 57.9164 26.5778C57.9164 26.8089 58.4946 27.066 59.2636 27.066C60.0326 27.066 60.6078 26.8089 60.6078 26.5778C60.6078 26.3467 60.0297 26.0896 59.2636 26.0896Z" fill="#FCFCFC"/>
<path d="M63.8428 27.2827C62.9437 27.2827 62.2615 26.9938 62.2615 26.5778C62.2615 26.1618 62.9437 25.8729 63.8428 25.8729C64.7419 25.8729 65.4242 26.1618 65.4242 26.5778C65.4242 26.9938 64.7563 27.2827 63.8428 27.2827ZM63.8428 26.0896C63.0623 26.0896 62.4783 26.3467 62.4783 26.5778C62.4783 26.8089 63.0565 27.066 63.8428 27.066C64.6291 27.066 65.2073 26.8089 65.2073 26.5778C65.2073 26.3467 64.6234 26.0896 63.8428 26.0896Z" fill="#FCFCFC"/>
<path d="M60.7841 26.65L60.6223 26.5056C60.7394 26.3837 60.8795 26.2863 61.0345 26.2188C61.1895 26.1514 61.3564 26.1153 61.5254 26.1126C61.6945 26.1099 61.8624 26.1407 62.0195 26.2032C62.1766 26.2657 62.3197 26.3586 62.4407 26.4767L62.3019 26.6414C62.2029 26.5401 62.0845 26.4599 61.9538 26.4053C61.8231 26.3508 61.6828 26.3231 61.5412 26.3239C61.3995 26.3247 61.2595 26.354 61.1295 26.41C60.9994 26.466 60.882 26.5477 60.7841 26.65Z" fill="#FCFCFC"/>
<path d="M63.2213 14.6033L61.8943 17.706H61.8221H61.4173L60.42 17.6771L60.738 17.2813L62.9813 14.508L63.0478 14.4271C63.0709 14.4705 63.0912 14.5138 63.1114 14.56C63.1494 14.5708 63.1862 14.5853 63.2213 14.6033Z" fill="#794E82"/>
<path d="M66.3579 25.4887C66.4273 25.3501 67.1153 25.1161 67.2512 25.6938C67.6126 27.2452 66.1295 28.5827 66.1295 28.5827C66.1295 28.5827 66.0919 26.0261 66.3579 25.4887Z" fill="#FFCCB6"/>
<path d="M100.205 54.2505H96.0995C95.7818 54.2505 95.5242 54.5079 95.5242 54.8254V55.0854C95.5242 55.4029 95.7818 55.6603 96.0995 55.6603H100.205C100.522 55.6603 100.78 55.4029 100.78 55.0854V54.8254C100.78 54.5079 100.522 54.2505 100.205 54.2505Z" fill="#F0F0FF"/>
<path d="M55.2828 49.2007C55.2828 49.7322 55.2452 50.2985 55.1787 50.9051C55.1752 50.9404 55.1588 50.9731 55.1326 50.9971C55.1065 51.0211 55.0725 51.0346 55.037 51.0351H55.0197C54.9818 51.0308 54.9472 51.0116 54.9233 50.9819C54.8995 50.9521 54.8884 50.9141 54.8925 50.8762C54.9906 50.0055 55.0196 49.1284 54.9792 48.2531C54.7566 44.0354 52.6665 42.5071 51.6547 42.016C51.7385 41.9467 51.8194 41.8831 51.9033 41.8196C53.0914 42.4667 55.3464 44.3011 55.2828 49.2007Z" fill="#EFEAEA"/>
<path d="M66.8666 26.7772H66.8377C66.829 26.7734 66.8211 26.7679 66.8144 26.7611C66.8078 26.7542 66.8026 26.7462 66.7991 26.7373C66.7956 26.7284 66.7939 26.719 66.7941 26.7095C66.7943 26.6999 66.7963 26.6905 66.8002 26.6818C67.0054 26.2283 66.9736 26.0232 66.9129 25.9307C66.8909 25.901 66.8621 25.8771 66.8289 25.861C66.7957 25.8449 66.759 25.8371 66.7221 25.8383C66.7033 25.8377 66.6854 25.8304 66.6716 25.8176C66.6578 25.8049 66.649 25.7876 66.6469 25.7689C66.6457 25.7595 66.6465 25.7499 66.6493 25.7408C66.652 25.7318 66.6568 25.7234 66.6631 25.7162C66.6694 25.7091 66.6771 25.7034 66.6858 25.6996C66.6945 25.6957 66.7039 25.6937 66.7134 25.6938C66.7752 25.6917 66.8365 25.7048 66.892 25.732C66.9474 25.7592 66.9953 25.7997 67.0314 25.8498C67.1528 26.026 67.1182 26.3265 66.9331 26.7396C66.9264 26.7512 66.9167 26.7608 66.905 26.7674C66.8933 26.7741 66.8801 26.7774 66.8666 26.7772Z" fill="#DDA794"/>
<path d="M66.3723 27.9789C66.36 27.9819 66.3471 27.9819 66.3348 27.9789C66.3183 27.9693 66.3064 27.9535 66.3015 27.9351C66.2967 27.9168 66.2993 27.8972 66.3087 27.8807L66.6874 27.2191C66.6971 27.2027 66.7128 27.1908 66.7312 27.1859C66.7496 27.1811 66.7692 27.1837 66.7857 27.1931C66.8021 27.2028 66.8142 27.2183 66.8195 27.2366C66.8249 27.2548 66.8231 27.2744 66.8146 27.2914L66.433 27.9529C66.4259 27.9619 66.4166 27.969 66.406 27.9736C66.3954 27.9781 66.3838 27.98 66.3723 27.9789Z" fill="#DDA794"/>
<g opacity="0.24">
<path opacity="0.24" d="M86.4902 76.9687C77.4243 76.3418 72.6456 81.2212 70.8099 83.7287L70.5728 83.6854C72.3796 81.1894 77.1467 76.2118 86.2329 76.7347L86.4902 76.9687Z" fill="#0C0C0C"/>
</g>
<g opacity="0.24">
<path opacity="0.24" d="M61.9695 17.7205C56.3264 22.2618 56.8005 31.1018 56.841 31.3473L55.2163 28.0425C55.2163 28.0425 58.272 16.4493 58.3819 16.4493C58.9808 16.9674 59.6656 17.3771 60.4055 17.6598L60.4431 17.6771L61.4289 17.6973H61.8336C61.88 17.6954 61.9263 17.7033 61.9695 17.7205Z" fill="#0C0C0C"/>
</g>
<path d="M61.3045 16.2327C61.3045 16.2327 56.5114 23.3162 56.2917 27.6033C56.1066 31.1653 57.6388 32.8496 56.2136 32.7138C54.9763 32.5982 51.7356 25.3818 51.7356 25.3818C51.7356 25.3818 54.482 16.9231 54.6265 16.8653C54.7711 16.8076 61.4404 15.4267 61.3045 16.2327Z" fill="#BD79C6"/>
<g opacity="0.24">
<path opacity="0.24" d="M60.1597 12.1536C57.2052 13.3091 54.2391 15.6202 53.0915 20.1934C52.3629 23.0822 52.5827 25.9451 52.8024 28.7098C53.1204 32.8178 53.4181 36.7005 50.267 39.6414C49.7611 40.1151 49.287 40.5514 48.8447 40.9587C46.7951 42.8451 45.4305 44.0989 44.6529 45.4711C44.6529 45.2901 44.6529 45.1052 44.6529 44.9165C45.4855 43.6511 46.7979 42.4407 48.6395 40.7478C49.0818 40.3405 49.5559 39.9042 50.0618 39.4305C53.1088 36.5849 52.8313 32.9449 52.5075 28.7416C52.2936 25.9567 52.071 23.0765 52.7966 20.1327C53.9154 15.7098 56.6617 13.3554 59.4948 12.116C59.7171 12.11 59.9395 12.1226 60.1597 12.1536Z" fill="#0C0C0C"/>
</g>
<g opacity="0.24">
<path opacity="0.24" d="M54.8521 21.9556C54.1091 24.9138 54.4213 27.6843 54.722 30.3623C55.147 34.1467 55.5488 37.7203 52.4411 40.6207C51.9323 41.0945 51.4582 41.5307 51.0158 41.938C47.6942 44.9945 46.1794 46.3927 46.0146 49.3163C45.9221 49.2123 45.8353 49.1054 45.7544 48.9956C46.0204 46.1443 47.6277 44.6623 50.8193 41.7271C51.2616 41.3198 51.7357 40.8836 52.2416 40.4098C55.2452 37.6076 54.8694 34.2651 54.4358 30.394C54.1322 27.69 53.8171 24.9051 54.5717 21.8834C56.0171 16.0854 59.1277 14.0834 62.3771 13.3785L62.5766 13.6327C59.3677 14.3174 56.2889 16.2327 54.8521 21.9556Z" fill="#0C0C0C"/>
</g>
<path d="M33.2454 62.998C31.8 62.9633 30.2649 60.8805 30.2996 59.4938C30.3343 58.1071 31.745 56.7349 33.1529 56.7696C34.3758 56.7985 35.2026 57.9685 35.1766 59.6122C35.1101 61.7616 34.4018 63.0269 33.2454 62.998ZM33.1269 57.746C32.3406 57.7287 31.2998 58.5838 31.2767 59.5169C31.2536 60.45 32.4822 62.0013 33.2686 62.0187C33.8294 62.0187 34.1561 60.8082 34.185 59.5891C34.2023 58.916 33.9971 57.7778 33.1269 57.746Z" fill="#D58AE2"/>
<path d="M38.5474 64.3096C38.0386 65.0636 36.7434 64.6851 35.431 64.7891C32.7309 65.0058 32.7424 63.8156 32.5892 61.8511C32.4826 60.1432 32.4922 58.43 32.6181 56.7233H32.7973L39.2209 56.5905C39.2209 56.5905 39.4782 62.92 38.5474 64.3096Z" fill="#D58AE2"/>
<path d="M39.2209 56.5876C39.2209 56.7551 37.7494 56.9227 35.9252 56.9603C34.1011 56.9978 32.6209 56.8909 32.618 56.7234C32.6152 56.5558 34.0895 56.3912 35.9137 56.3536C37.7378 56.316 39.218 56.4229 39.2209 56.5876Z" fill="#754A7C"/>
<path d="M36.2259 54.7271C36.1998 54.727 36.174 54.7205 36.1509 54.7083C36.1278 54.696 36.108 54.6783 36.0932 54.6567C36.0784 54.6351 36.0691 54.6103 36.066 54.5843C36.063 54.5583 36.0663 54.532 36.0756 54.5076C36.5006 53.3116 36.1074 52.8089 35.7287 52.3207C35.4444 52.0372 35.2754 51.6584 35.2546 51.2576C35.2893 49.8507 36.6653 49.426 36.6798 49.4231C36.7003 49.4171 36.7218 49.4151 36.7431 49.4173C36.7643 49.4196 36.7849 49.426 36.8037 49.4362C36.8225 49.4463 36.8391 49.4601 36.8526 49.4767C36.866 49.4933 36.8761 49.5124 36.8822 49.5329C36.8882 49.5534 36.8902 49.5749 36.888 49.5961C36.8858 49.6174 36.8794 49.638 36.8692 49.6568C36.859 49.6755 36.8451 49.6921 36.8285 49.7056C36.8119 49.719 36.7928 49.7291 36.7723 49.7351C36.7232 49.7496 35.6159 50.0991 35.5813 51.2634C35.6055 51.5914 35.7483 51.8995 35.9831 52.13C36.3791 52.6327 36.8706 53.2625 36.382 54.626C36.3692 54.6566 36.3475 54.6827 36.3196 54.7007C36.2918 54.7188 36.2591 54.728 36.2259 54.7271Z" fill="#C4B9FF"/>
<path d="M129.357 64.1565H21.6991V68.8394H129.357V64.1565Z" fill="#FFE8C7"/>
<path d="M53.2997 64.1565H13.3386V68.8394H53.2997V64.1565Z" fill="#D1B48F"/>
</svg>
